id,text
608865966710083584,RT @BruceBillsonMP: Great to be in Penrith with @TonyAbbottMHR @FionaScottMP @stuartayresmp @LouiseMarkusMP talking to small business about…
608448619482611712,RT @MarisePayne: Great to launch @HumanServicesAU Medicare Billing Assurance Toolkit at Springwood w @LouiseMarkusMP &amp; @balanceHC http://t.…
274374843259039744,RAAF Base Richmond to farewell the C-130H's Hercules.Congrates to Air Commander Gary Martin &amp; the 37 Squadron. http://t.co/tbRBTPNs
273556140351164416,Local Community Crime Forum  Louise Markus http://t.co/aTzf8Fyg
222835497762947072,RT @bmgazette: Great Western Highway blocked in both directions in the upper #bluemountains after a major car crash http://t.co/I3DU8Qa2
181664136571260928,@barryofarrell great news - looking forward to a recap of the issues raised with Cabinet by residents!
181661120677953536,"Sorry to miss this, in parl “@barryofarrell: at the Springwood Sports Club in the Blue Mountains for the Community Cabinet &amp; public meeting”"
181563822895677440,Spending time with Guide Dogs NSW/ACT newest recruits. Thanks @JohnAlexanderMP for initiating the meet and greet! http://t.co/qgpzXcPd
178260800610369539,"Celebrating the re-opening of @SCU_Banking Windsor branch with Michelle, SCU Windsor  http://t.co/CmgWNqCY"
177549269966921728,Launching the Hawkesbury Multicultural Women's Group @ North Richmond Community Centre for #IWD2012  http://t.co/m7PlW0Hg
177506183010193411,Celebrating International Women's Day at the Springwood Neighbourhood Centre with fantastic women!  http://t.co/3FuwKOsK
177305200686669824,"Robust discussion at Macquarie School Funding Forum with principals, P&Cs and parents, with Christopher Pyne. http://t.co/af633Dlj"
177194543660277760,"Grateful our community made it through potential flood. Thinking of our friends in other parts of NSW, VIC and QLD."
175837317204934658,"RT @702sydney: SES: Richmond & Windsor Bridges now closed, & causing some traffic chaos in the area. Evacuation Orders affecting 2000 pe ..."
175787532154445824,Have spent morning with SES assisting with evacuations in Hawkesbury. SES doing a phenomenal job. Please keep safe.
170292001848303616,"Hot issues: discretionary income, workplace agreements, rising cost of living, grants. Roundtable with @SenatorCash  http://t.co/pynaMpOx"
170290923027181568,Roundtable with Macquarie business women and @SenatorCash discovering why our female small business owners are so successful! #Inspirational
163446717562368000,Chatting with Hawkesbury Radio at Hawkesbury International Sand Sculpture Competition - such talent!   http://t.co/RSlhJwk1
162310029251313664,Wishing everyone a fantastic Australia Day! Welcome to all new citizens of this great nation in the Blue Mountains and the Hawkesbury!
162307748493664256,Welcoming new citizens to this great nation at Springwood Citizenship Ceremony. Have a great Australia Day!  http://t.co/jSsFfOP3
160481097518551041,"Speaking with young women at the Alliance of Girls Schools conference on leadership, challenges and the future. Future leaders in this room!"
160105152953581570,On the banks of the Hawkesbury River with Heart Of the Hawkesbury and Sunrise crew for Sand Sculpting Competition http://t.co/Ans30U1V
157648503336742913,Walking through Heart of the Hawkesbury International Sand Sculpture Competition; great event for Hawkesbury tourism! http://t.co/vg7XmZ9i
157278963746611201,At the Katoomba Men's Shed donating an Aus flag for their new flag pole. Amazing work & amazing men.  http://t.co/OH5dSU7V
